{
  
  "jcr:created": "Mon Sep 04 2017 16:11:40 GMT-0400",
  "jcr:primaryType": "cq:Page",
  "jcr:content": {
    "jcr:title": "Triangle",
    "cq:tags": [
      "marketing:interest/product"
    ],
    "cq:lastReplicated": "Wed Aug 23 2017 20:00:25 GMT-0400",
    "cq:template": "/apps/geometrixx/templates/contentpage",

    "cq:lastReplicationAction": "Deactivate",
    "cq:lastModifiedBy": "admin",
    "cq:lastModified": "Thu Nov 11 2010 19:01:52 GMT-0500",
    "cq:lastReplicatedBy": "admin",
    "sling:resourceType": "geometrixx/components/contentpage",
    "jcr:created": "Mon Sep 04 2017 16:11:40 GMT-0400",
    "jcr:primaryType": "cq:PageContent",
    "par": {
      "sling:resourceType": "foundation/components/parsys",
      "jcr:primaryType": "nt:unstructured",
      "flash": {
        "jcr:lastModifiedBy": "admin",

        "jcr:lastModified": "Tue Nov 02 2010 23:20:23 GMT-0400",
        "sling:resourceType": "foundation/components/flash",
        "fileReference": "/content/dam/geometrixx/movies/triangles.swf",
        "jcr:created": "Tue Nov 02 2010 23:20:11 GMT-0400",
        "jcr:primaryType": "nt:unstructured"
      },
      "title": {
        "jcr:title": "It's simple: three sides, three vertices, endless possibilities",
        "jcr:lastModifiedBy": "admin",
        "type": "large",
        "jcr:lastModified": "Thu Nov 11 2010 18:09:55 GMT-0500",
        "sling:resourceType": "geometrixx/components/title",
        "jcr:primaryType": "nt:unstructured"
      },
      "text_0": {
        "text": "<p>The measure of an exterior angle of a triangle is equal to the sum of the measures of the two interior angles that are not adjacent to it; this is the exterior angle theorem. The sum of the measures of the three exterior angles (one for each vertex) of any triangle is 360 degrees.</p>\n<p style=\"font-family: tahoma,arial,helvetica,sans-serif; font-size: 12px;\"></p>\n",
        "jcr:lastModifiedBy": "admin",

        "textIsRich": "true",
        "jcr:lastModified": "Fri Nov 05 2010 11:14:54 GMT-0400",
        "sling:resourceType": "foundation/components/text",
        "jcr:created": "Wed Nov 03 2010 00:41:59 GMT-0400",
        "jcr:primaryType": "nt:unstructured"
      },
      "title1": {
        "jcr:title": "Pair your triangle with any of our many other shapes.",
        "jcr:lastModifiedBy": "admin",
        "jcr:lastModified": "Wed Nov 03 2010 11:32:13 GMT-0400",
        "sling:resourceType": "geometrixx/components/title",
        "jcr:primaryType": "nt:unstructured"
      },
      "1_1219674803642": {
        "jcr:lastModifiedBy": "admin",
        "fileName": "Picture 1.png",
        "jcr:lastModified": "Tue Nov 02 2010 02:03:30 GMT-0400",
        "sling:resourceType": "foundation/components/image",
        "fileReference": "/content/dam/geometrixx/shapes/W06.jpg",
        "jcr:primaryType": "nt:unstructured",
        "file": {
          "jcr:lastModified": "Mon Sep 04 2017 16:11:40 GMT-0400",

          "jcr:lastModifiedBy": "system",
          "jcr:uuid": "9f8d5e47-3b30-40a2-a4cb-59a0edd996e4",
          "jcr:mimeType": "image/png",

        }
      },
      "list": {
        "jcr:lastModifiedBy": "admin",

        "jcr:lastModified": "Thu Nov 11 2010 09:05:19 GMT-0500",
        "sling:resourceType": "geometrixx/components/list",
        "listFrom": "children",
        "jcr:created": "Thu Nov 11 2010 09:05:19 GMT-0500",
        "jcr:primaryType": "nt:unstructured"
      },
      "ratings": {
        "jcr:lastModifiedBy": "admin",
        "jcr:lastModified": "Tue Oct 06 2009 13:40:41 GMT-0400",
        "sling:resourceType": "collab/commons/components/ratings",
        "jcr:primaryType": "nt:unstructured"
      }
    },
    "rightpar": {
      "sling:resourceType": "foundation/components/iparsys",
      "jcr:primaryType": "nt:unstructured",
      "iparsys_fake_par": {
        "sling:resourceType": "foundation/components/iparsys/par",
        "jcr:primaryType": "nt:unstructured"
      }
    },
    "image": {
      "imageRotate": "0",
      "jcr:lastModifiedBy": "admin",
      "jcr:lastModified": "Thu Nov 11 2010 19:01:52 GMT-0500",
      "jcr:primaryType": "nt:unstructured"
    },
    "title": {
      "jcr:title": "Three sides to every story",
      "jcr:lastModifiedBy": "admin",
      "jcr:lastModified": "Wed Nov 03 2010 11:35:06 GMT-0400",
      "sling:resourceType": "geometrixx/components/title",
      "jcr:primaryType": "nt:unstructured"
    }
  },
  "overview": {

    "jcr:created": "Mon Sep 04 2017 16:11:40 GMT-0400",
    "jcr:primaryType": "cq:Page",
    "jcr:content": {
      "jcr:title": "Overview",
      "cq:lastReplicated": "Wed Aug 23 2017 20:00:25 GMT-0400",
      "cq:template": "/apps/geometrixx/templates/contentpage",

      "cq:lastReplicationAction": "Deactivate",
      "cq:lastModifiedBy": "admin",
      "cq:lastModified": "Thu Nov 11 2010 08:55:14 GMT-0500",
      "cq:lastReplicatedBy": "admin",
      "sling:resourceType": "geometrixx/components/contentpage",
      "jcr:created": "Mon Sep 04 2017 16:11:40 GMT-0400",
      "jcr:primaryType": "cq:PageContent",
      "par": {
        "sling:resourceType": "foundation/components/parsys",
        "jcr:primaryType": "nt:unstructured",
        "colctrl": {
          "jcr:lastModifiedBy": "admin",
          "controlType": "start",

          "jcr:lastModified": "Tue Nov 02 2010 23:30:04 GMT-0400",
          "layout": "3;cq-colctrl-lt1",
          "sling:resourceType": "foundation/components/parsys/colctrl",
          "jcr:created": "Tue Nov 02 2010 23:25:34 GMT-0400",
          "jcr:primaryType": "nt:unstructured"
        },
        "title": {
          "jcr:title": "Equilateral",
          "jcr:lastModifiedBy": "admin",

          "jcr:lastModified": "Tue Nov 02 2010 23:26:54 GMT-0400",
          "sling:resourceType": "geometrixx/components/title",
          "jcr:created": "Tue Nov 02 2010 23:26:36 GMT-0400",
          "jcr:primaryType": "nt:unstructured"
        },
        "text_2": {
          "text": "<p>The classic for the discerning triangle aficionado. Three equal sides, three equal angles. Liberté, égalité, fraternité!</p>\n<p style=\"font-family: tahoma, arial, helvetica, sans-serif; font-size: 12px;\"></p>\n",
          "jcr:lastModifiedBy": "admin",

          "textIsRich": "true",
          "jcr:lastModified": "Wed Nov 03 2010 00:15:29 GMT-0400",
          "sling:resourceType": "foundation/components/text",
          "jcr:created": "Tue Nov 02 2010 23:31:33 GMT-0400",
          "jcr:primaryType": "nt:unstructured"
        },
        "image": {
          "jcr:lastModifiedBy": "admin",

          "jcr:lastModified": "Thu Nov 11 2010 08:55:14 GMT-0500",
          "sling:resourceType": "foundation/components/image",
          "fileReference": "/content/dam/geometrixx/shapes/tri_equilateral.png",
          "jcr:created": "Tue Nov 02 2010 23:25:58 GMT-0400",
          "jcr:primaryType": "nt:unstructured"
        },
        "col_break12887547349980": {
          "controlType": "break",
          "sling:resourceType": "foundation/components/parsys/colctrl",
          "jcr:primaryType": "nt:unstructured"
        },
        "title_0": {
          "jcr:title": "Isoceles",
          "jcr:lastModifiedBy": "admin",

          "jcr:lastModified": "Tue Nov 02 2010 23:27:03 GMT-0400",
          "sling:resourceType": "geometrixx/components/title",
          "jcr:created": "Tue Nov 02 2010 23:26:39 GMT-0400",
          "jcr:primaryType": "nt:unstructured"
        },
        "text_0": {
          "text": "<p>With at least two equal sides, isoceles is sometimes equilateral and visa versa. Or as the ancient Greeks would say, iso skelos!</p>\n<p></p>\n",
          "jcr:lastModifiedBy": "admin",

          "textIsRich": "true",
          "jcr:lastModified": "Tue Nov 02 2010 23:36:14 GMT-0400",
          "sling:resourceType": "foundation/components/text",
          "jcr:created": "Tue Nov 02 2010 23:26:30 GMT-0400",
          "jcr:primaryType": "nt:unstructured"
        },
        "image_0": {
          "jcr:lastModifiedBy": "admin",

          "jcr:lastModified": "Thu Nov 11 2010 08:55:12 GMT-0500",
          "sling:resourceType": "foundation/components/image",
          "fileReference": "/content/dam/geometrixx/shapes/tri_isoceles.png",
          "jcr:created": "Tue Nov 02 2010 23:26:01 GMT-0400",
          "jcr:primaryType": "nt:unstructured"
        },
        "col_break12887547349991": {
          "controlType": "break",
          "sling:resourceType": "foundation/components/parsys/colctrl",
          "jcr:primaryType": "nt:unstructured"
        },
        "title_1": {
          "jcr:title": "Scalene",
          "jcr:lastModifiedBy": "admin",

          "jcr:lastModified": "Tue Nov 02 2010 23:27:14 GMT-0400",
          "sling:resourceType": "geometrixx/components/title",
          "jcr:created": "Tue Nov 02 2010 23:26:43 GMT-0400",
          "jcr:primaryType": "nt:unstructured"
        },
        "text_1": {
          "text": "<p>Oh scalene, you odd man out, you rebel. Not one equal side and a steep argument at every angle. Mein Gott!</p>\n<p style=\"font-family: tahoma, arial, helvetica, sans-serif; font-size: 12px;\"></p>\n",
          "jcr:lastModifiedBy": "admin",

          "jcr:lastModified": "Tue Nov 02 2010 23:39:11 GMT-0400",
          "textIsRich": "true",
          "sling:resourceType": "foundation/components/text",
          "jcr:created": "Tue Nov 02 2010 23:26:33 GMT-0400",
          "jcr:primaryType": "nt:unstructured"
        },
        "image_1": {
          "jcr:lastModifiedBy": "admin",

          "jcr:lastModified": "Thu Nov 11 2010 08:55:09 GMT-0500",
          "sling:resourceType": "foundation/components/image",
          "fileReference": "/content/dam/geometrixx/shapes/tri_scalene.png",
          "jcr:created": "Tue Nov 02 2010 23:26:04 GMT-0400",
          "jcr:primaryType": "nt:unstructured"
        },
        "col_end12887547349992": {
          "controlType": "end",
          "sling:resourceType": "foundation/components/parsys/colctrl",
          "jcr:primaryType": "nt:unstructured"
        }
      },
      "rightpar": {
        "sling:resourceType": "foundation/components/iparsys",
        "jcr:primaryType": "nt:unstructured",
        "iparsys_fake_par": {
          "sling:resourceType": "foundation/components/iparsys/par",
          "jcr:primaryType": "nt:unstructured"
        }
      },
      "title": {
        "jcr:title": "The triangle is available in three models",
        "jcr:lastModifiedBy": "admin",
        "jcr:lastModified": "Tue Nov 02 2010 23:25:17 GMT-0400",
        "sling:resourceType": "geometrixx/components/title",
        "jcr:primaryType": "nt:unstructured"
      }
    }
  },
  "features": {

    "jcr:created": "Mon Sep 04 2017 16:11:40 GMT-0400",
    "jcr:primaryType": "cq:Page",
    "jcr:content": {
      "jcr:title": "Features",
      "cq:lastReplicated": "Wed Aug 23 2017 20:00:25 GMT-0400",

      "cq:template": "/apps/geometrixx/templates/contentpage",
      "cq:lastReplicationAction": "Deactivate",
      "cq:lastModifiedBy": "admin",
      "cq:lastModified": "Fri Nov 05 2010 11:29:43 GMT-0400",
      "cq:lastReplicatedBy": "admin",
      "sling:resourceType": "geometrixx/components/contentpage",
      "jcr:created": "Mon Sep 04 2017 16:11:40 GMT-0400",
      "jcr:primaryType": "cq:PageContent",
      "par": {
        "sling:resourceType": "foundation/components/parsys",
        "jcr:primaryType": "nt:unstructured",
        "image": {
          "jcr:lastModifiedBy": "admin",

          "jcr:lastModified": "Wed Nov 03 2010 00:30:28 GMT-0400",
          "sling:resourceType": "foundation/components/image",
          "fileReference": "/content/dam/geometrixx/shapes/W01.jpg",
          "jcr:created": "Wed Nov 03 2010 00:30:22 GMT-0400",
          "jcr:primaryType": "nt:unstructured"
        },
        "table_0": {
          "jcr:lastModifiedBy": "admin",

          "tableData": "<table width=\"400\" cellspacing=\"0\" cellpadding=\"1\" border=\"1\">\n<tbody><tr><th>&nbsp;</th>\n<th>Description</th>\n</tr><tr><th>Dimensions</th>\n<td>2</td>\n</tr><tr><th>Sides</th>\n<td>3</td>\n</tr><tr><th>Vertices<br>\n</th>\n<td>3</td>\n</tr><tr><th>Colors</th>\n<td>Red / Green / Blue / Orange</td>\n</tr><tr><th>Sizes (Height)</th>\n<td>1m / 10m / 100m / 1000m (special order)</td>\n</tr></tbody></table>\n",
          "jcr:lastModified": "Fri Nov 05 2010 11:29:43 GMT-0400",
          "sling:resourceType": "foundation/components/table",
          "jcr:created": "Fri Nov 05 2010 11:25:39 GMT-0400",
          "jcr:primaryType": "nt:unstructured"
        }
      },
      "rightpar": {
        "sling:resourceType": "foundation/components/iparsys",
        "jcr:primaryType": "nt:unstructured",
        "iparsys_fake_par": {
          "sling:resourceType": "foundation/components/iparsys/par",
          "jcr:primaryType": "nt:unstructured"
        }
      }
    }
  }
}
